{
  "tasks": {
    // Read, Write - fileloader
    "dev": "deno run --allow-net --allow-env --allow-read --allow-write --check mod.ts",
    "cachedeps": "deno cache deps.ts",
    "start": "deno run --allow-net --allow-env --allow-read --allow-write mod.ts"
  },
  "fmt": {
    "files": {
      "include": ["src", "."]
    },
    "options": {
      "lineWidth": 120
    }
  },
  "compilerOptions": {
    "jsxFactory": "window.createElement",
    "jsxFragmentFactory": "window.Fragment"
  }
}
